…
<img src="readme_files/figure-gfm/unnamed-chunk-6-1.png" width="80%" style="display: block; margin: auto;" />
Pulling up the data for VH1 shows that there is an entry per Producer,
thus inflating the number of “wins” that needs to be deduped.

``` r
data_nominees %>% 
  filter(year >= 2015, type == "Winner", distributor == "VH1") %>% 
  select(category, title, production, year)
#> # A tibble: 108 × 4
#>    category                             title          production           year
#>    <chr>                                <chr>          <chr>               <dbl>
#>  1 Outstanding Casting For A Reality P… RuPaul's Drag… Goloka Bolte, CSA,…  2021
#>  2 Outstanding Casting For A Reality P… RuPaul's Drag… Ethan Petersen, CS…  2021
#>  3 Outstanding Directing For A Reality… RuPaul's Drag… Nick Murray, Direc…  2021
#>  4 Outstanding Host For A Reality Or C… RuPaul's Drag… <NA>                 2021
#>  5 Outstanding Picture Editing For A S… RuPaul's Drag… Jamie Martin, Lead…  2021
#>  6 Outstanding Picture Editing For A S… RuPaul's Drag… Paul Cross, Editor   2021
#>  7 Outstanding Picture Editing For A S… RuPaul's Drag… Ryan Mallick, Edit…  2021
#>  8 Outstanding Picture Editing For A S… RuPaul's Drag… Michael Roha, Edit…  2021
#>  9 Outstanding Unstructured Reality Pr… RuPaul's Drag… Fenton Bailey, Exe…  2021
#> 10 Outstanding Unstructured Reality Pr… RuPaul's Drag… Randy Barbato, Exe…  2021
#> # … with 98 more rows
```
…
